lab05_vs/simulation/qsim/lab05_vs.msim.vcd
$comment
	File created using the following command:
		vcd file lab05_vs.msim.vcd -direction
$end
$date
	Fri Oct 11 12:39:07 2024
$end
$version
	ModelSim Version 10.3d
$end
$timescale
	1ps
$end

$scope module game_vlg_vec_tst $end
$var reg 1 ! clk $end
$var reg 1 " e $end
$var reg 1 # n $end
$var reg 1 $ reset $end
$var reg 1 % s $end
$var reg 1 & w $end
$var wire 1 ' d $end
$var wire 1 ( s0 $end
$var wire 1 ) s1 $end
$var wire 1 * s2 $end
$var wire 1 + s3 $end
$var wire 1 , s4 $end
$var wire 1 - s5 $end
$var wire 1 . s6 $end
$var wire 1 / sw $end
$var wire 1 0 v $end
$var wire 1 1 win $end
$var wire 1 2 sampler $end

$scope module i1 $end
$var wire 1 3 gnd $end
$var wire 1 4 vcc $end
$var wire 1 5 unknown $end
$var tri1 1 6 devclrn $end
$var tri1 1 7 devpor $end
$var tri1 1 8 devoe $end
$var wire 1 9 s0~output_o $end
$var wire 1 : s1~output_o $end
$var wire 1 ; s2~output_o $end
$var wire 1 < sw~output_o $end
$var wire 1 = s3~output_o $end
$var wire 1 > s4~output_o $end
$var wire 1 ? d~output_o $end
$var wire 1 @ s5~output_o $end
$var wire 1 A win~output_o $end
$var wire 1 B s6~output_o $end
$var wire 1 C v~output_o $end
$var wire 1 D clk~input_o $end
$var wire 1 E clk~inputclkctrl_outclk $end
$var wire 1 F reset~input_o $end
$var wire 1 G e~input_o $end
$var wire 1 H w~input_o $end
$var wire 1 I n~input_o $end
$var wire 1 J s~input_o $end
$var wire 1 K room_f|s2n~0_combout $end
$var wire 1 L room_f|s3n~0_combout $end
$var wire 1 M room_f|s3n~1_combout $end
$var wire 1 N room_f|dff3|q~q $end
$var wire 1 O room_f|s2n~1_combout $end
$var wire 1 P room_f|s2n~2_combout $end
$var wire 1 Q room_f|dff2|q~q $end
$var wire 1 R room_f|s1n~1_combout $end
$var wire 1 S room_f|s1n~0_combout $end
$var wire 1 T room_f|s1n~2_combout $end
$var wire 1 U room_f|dff1|q~q $end
$var wire 1 V room_f|s0n~0_combout $end
$var wire 1 W room_f|s0n~combout $end
$var wire 1 X room_f|dff0|q~q $end
$var wire 1 Y room_f|s4n~0_combout $end
$var wire 1 Z room_f|dff4|q~q $end
$var wire 1 [ sword_f|state_d~0_combout $end
$var wire 1 \ sword_f|state_ff|q~q $end
$var wire 1 ] room_f|s5n~0_combout $end
$var wire 1 ^ room_f|dff5|q~q $end
$var wire 1 _ room_f|s6n~0_combout $end
$var wire 1 ` room_f|dff6|q~q $end
$upscope $end
$upscope $end
$enddefinitions $end
#0
$dumpvars
1!
0"
0#
1$
0%
0&
0'
0(
0)
0*
0+
0,
0-
0.
0/
00
01
x2
03
14
x5
16
17
18
09
0:
0;
0<
0=
0>
0?
0@
0A
0B
0C
1D
1E
1F
0G
0H
0I
0J
1K
0L
0M
0N
0O
0P
0Q
0R
0S
0T
0U
0V
1W
0X
0Y
0Z
0[
0\
0]
0^
0_
0`
$end
#10000
0!
0D
02
0E
#20000
1!
1D
12
1E
1X
19
1V
1(
#30000
0$
0!
0F
0D
02
0E
#40000
1"
1!
1G
1D
12
1E
0V
1R
0W
1T
#50000
0!
0D
02
0E
#60000
0"
1!
0G
1D
12
1E
1V
0R
1W
0T
0X
1U
1:
09
0V
1S
1)
0(
0W
1T
#70000
0!
0D
02
0E
#80000
1&
1!
1H
1D
12
1E
1V
0S
0K
1W
0T
#90000
0!
0D
02
0E
#100000
0&
1!
0H
1D
12
1E
0V
1S
1K
0W
1T
1X
0U
0:
19
1V
0S
0)
1(
1W
0T
#110000
0!
0D
02
0E
#120000
1"
1!
1G
1D
12
1E
0V
1R
0W
1T
#130000
0!
0D
02
0E
#140000
0"
1!
0G
1D
12
1E
1V
0R
1W
0T
0X
1U
1:
09
0V
1S
1)
0(
0W
1T
#150000
0!
0D
02
0E
#160000
1%
1!
1J
1D
12
1E
0S
1O
0T
1P
#170000
0!
0D
02
0E
#180000
0%
1!
0J
1D
12
1E
1S
0O
1T
0P
0U
1Q
1;
0:
0S
1*
0)
1P
0T
#190000
0!
0D
02
0E
#200000
1#
1!
1I
1D
12
1E
1R
0K
1T
0P
#210000
0!
0D
02
0E
#220000
0#
1!
0I
1D
12
1E
0R
1K
0T
1P
1U
0Q
0;
1:
1S
0*
1)
0P
1T
#230000
0!
0D
02
0E
#240000
1%
1!
1J
1D
12
1E
0S
1O
0T
1P
#250000
0!
0D
02
0E
#260000
0%
1!
0J
1D
12
1E
1S
0O
1T
0P
0U
1Q
1;
0:
0S
1*
0)
1P
0T
#270000
0!
0D
02
0E
#280000
1"
1%
1!
1G
1J
1D
12
1E
0K
1Y
0P
#290000
0!
0D
02
0E
#300000
0"
0%
1!
0G
0J
1D
12
1E
1K
0Y
1P
1Z
0Q
0;
1>
0*
1,
1]
0P
#310000
0!
0D
02
0E
#320000
1!
1D
12
1E
1^
0Z
0>
1?
1@
0,
1'
1-
#330000
0!
0D
02
0E
#340000
1!
1D
12
1E
#350000
0!
0D
02
0E
#360000
1!
1D
12
1E
#370000
0!
0D
02
0E
#380000
1!
1D
12
1E
#390000
1$
0!
1F
0D
02
0E
0]
1W
#400000
1!
1D
12
1E
0^
1X
19
0?
0@
1V
1(
0'
0-
#410000
0$
0!
0F
0D
02
0E
#420000
1!
1D
12
1E
#430000
0!
0D
02
0E
#440000
1!
1D
12
1E
#450000
0!
0D
02
0E
#460000
1!
1D
12
1E
#470000
0!
0D
02
0E
#480000
1!
1D
12
1E
#490000
0!
0D
02
0E
#500000
1!
1D
12
1E
#510000
0!
0D
02
0E
#520000
1!
1D
12
1E
#530000
0!
0D
02
0E
#540000
1!
1D
12
1E
#550000
0!
0D
02
0E
#560000
1!
1D
12
1E
#570000
0!
0D
02
0E
#580000
1!
1D
12
1E
#590000
0!
0D
02
0E
#600000
1!
1D
12
1E
#610000
0!
0D
02
0E
#620000
1!
1D
12
1E
#630000
0!
0D
02
0E
#640000
1!
1D
12
1E
#650000
0!
0D
02
0E
#660000
1!
1D
12
1E
#670000
0!
0D
02
0E
#680000
1!
1D
12
1E
#690000
0!
0D
02
0E
#700000
1!
1D
12
1E
#710000
0!
0D
02
0E
#720000
1!
1D
12
1E
#730000
0!
0D
02
0E
#740000
1!
1D
12
1E
#750000
0!
0D
02
0E
#760000
1!
1D
12
1E
#770000
0!
0D
02
0E
#780000
1!
1D
12
1E
#790000
0!
0D
02
0E
#800000
1!
1D
12
1E
#810000
0!
0D
02
0E
#820000
1!
1D
12
1E
#830000
0!
0D
02
0E
#840000
1!
1D
12
1E
#850000
0!
0D
02
0E
#860000
1!
1D
12
1E
#870000
0!
0D
02
0E
#880000
1!
1D
12
1E
#890000
0!
0D
02
0E
#900000
1!
1D
12
1E
#910000
0!
0D
02
0E
#920000
1!
1D
12
1E
#930000
0!
0D
02
0E
#940000
1!
1D
12
1E
#950000
0!
0D
02
0E
#960000
1!
1D
12
1E
#970000
0!
0D
02
0E
#980000
1!
1D
12
1E
#990000
0!
0D
02
0E
