lab03_vs/simulation/qsim/lab03_vs.msim.vcd
$comment
	File created using the following command:
		vcd file lab03_vs.msim.vcd -direction
$end
$date
	Wed Sep 25 16:54:05 2024
$end
$version
	ModelSim Version 10.3d
$end
$timescale
	1ps
$end

$scope module lab03_vs_vlg_vec_tst $end
$var reg 1 ! A $end
$var reg 1 " B $end
$var reg 1 # C $end
$var reg 1 $ D $end
$var wire 1 % Sa $end
$var wire 1 & Sb $end
$var wire 1 ' sampler $end

$scope module i1 $end
$var wire 1 ( gnd $end
$var wire 1 ) vcc $end
$var wire 1 * unknown $end
$var tri1 1 + devclrn $end
$var tri1 1 , devpor $end
$var tri1 1 - devoe $end
$var wire 1 . Sa~output_o $end
$var wire 1 / Sb~output_o $end
$var wire 1 0 B~input_o $end
$var wire 1 1 C~input_o $end
$var wire 1 2 A~input_o $end
$var wire 1 3 D~input_o $end
$var wire 1 4 inst8~0_combout $end
$var wire 1 5 inst14~0_combout $end
$upscope $end
$upscope $end
$enddefinitions $end
#0
$dumpvars
0!
0"
0#
0$
0%
0&
x'
0(
1)
x*
1+
1,
1-
0.
0/
00
01
02
03
04
05
$end
#10000
1$
13
0'
14
1.
1%
#20000
1#
0$
11
03
1'
04
0.
0%
#30000
1$
13
0'
#40000
1"
0#
0$
10
01
03
1'
14
1.
1%
#50000
1$
13
0'
15
04
0.
1/
0%
1&
#60000
1#
0$
11
03
1'
#70000
1$
13
0'
05
0/
0&
#80000
1!
0"
0#
0$
12
00
01
03
1'
#90000
1$
13
0'
#100000
1#
0$
11
03
1'
#110000
1$
13
0'
15
14
1.
1/
1%
1&
#120000
1"
0#
0$
10
01
03
1'
#130000
1$
13
0'
05
0/
0&
#140000
1#
0$
11
03
1'
15
04
0.
1/
0%
1&
#150000
1$
13
0'
#160000
0!
0"
0#
0$
02
00
01
03
1'
05
0/
0&
#170000
1$
13
0'
14
1.
1%
#180000
1#
0$
11
03
1'
04
0.
0%
#190000
1$
13
0'
#200000
1"
0#
0$
10
01
03
1'
14
1.
1%
#210000
1$
13
0'
15
04
0.
1/
0%
1&
#220000
1#
0$
11
03
1'
#230000
1$
13
0'
05
0/
0&
#240000
1!
0"
0#
0$
12
00
01
03
1'
#250000
1$
13
0'
#260000
1#
0$
11
03
1'
#270000
1$
13
0'
15
14
1.
1/
1%
1&
#280000
1"
0#
0$
10
01
03
1'
#290000
1$
13
0'
05
0/
0&
#300000
1#
0$
11
03
1'
15
04
0.
1/
0%
1&
#310000
1$
13
0'
#320000
0!
0"
0#
0$
02
00
01
03
1'
05
0/
0&
#330000
1$
13
0'
14
1.
1%
#340000
1#
0$
11
03
1'
04
0.
0%
#350000
1$
13
0'
#360000
1"
0#
0$
10
01
03
1'
14
1.
1%
#370000
1$
13
0'
15
04
0.
1/
0%
1&
#380000
1#
0$
11
03
1'
#390000
1$
13
0'
05
0/
0&
#400000
1!
0"
0#
0$
12
00
01
03
1'
#410000
1$
13
0'
#420000
1#
0$
11
03
1'
#430000
1$
13
0'
15
14
1.
1/
1%
1&
#440000
1"
0#
0$
10
01
03
1'
#450000
1$
13
0'
05
0/
0&
#460000
1#
0$
11
03
1'
15
04
0.
1/
0%
1&
#470000
1$
13
0'
#480000
0!
0"
0#
0$
02
00
01
03
1'
05
0/
0&
#490000
1$
13
0'
14
1.
1%
#500000
1#
0$
11
03
1'
04
0.
0%
#510000
1$
13
0'
#520000
1"
0#
0$
10
01
03
1'
14
1.
1%
#530000
1$
13
0'
15
04
0.
1/
0%
1&
#540000
1#
0$
11
03
1'
#550000
1$
13
0'
05
0/
0&
#560000
1!
0"
0#
0$
12
00
01
03
1'
#570000
1$
13
0'
#580000
1#
0$
11
03
1'
#590000
1$
13
0'
15
14
1.
1/
1%
1&
#600000
1"
0#
0$
10
01
03
1'
#610000
1$
13
0'
05
0/
0&
#620000
1#
0$
11
03
1'
15
04
0.
1/
0%
1&
#630000
1$
13
0'
#640000
0!
0"
0#
0$
02
00
01
03
1'
05
0/
0&
#650000
1$
13
0'
14
1.
1%
#660000
1#
0$
11
03
1'
04
0.
0%
#670000
1$
13
0'
#680000
1"
0#
0$
10
01
03
1'
14
1.
1%
#690000
1$
13
0'
15
04
0.
1/
0%
1&
#700000
1#
0$
11
03
1'
#710000
1$
13
0'
05
0/
0&
#720000
1!
0"
0#
0$
12
00
01
03
1'
#730000
1$
13
0'
#740000
1#
0$
11
03
1'
#750000
1$
13
0'
15
14
1.
1/
1%
1&
#760000
1"
0#
0$
10
01
03
1'
#770000
1$
13
0'
05
0/
0&
#780000
1#
0$
11
03
1'
15
04
0.
1/
0%
1&
#790000
1$
13
0'
#800000
0!
0"
0#
0$
02
00
01
03
1'
05
0/
0&
#810000
1$
13
0'
14
1.
1%
#820000
1#
0$
11
03
1'
04
0.
0%
#830000
1$
13
0'
#840000
1"
0#
0$
10
01
03
1'
14
1.
1%
#850000
1$
13
0'
15
04
0.
1/
0%
1&
#860000
1#
0$
11
03
1'
#870000
1$
13
0'
05
0/
0&
#880000
1!
0"
0#
0$
12
00
01
03
1'
#890000
1$
13
0'
#900000
1#
0$
11
03
1'
#910000
1$
13
0'
15
14
1.
1/
1%
1&
#920000
1"
0#
0$
10
01
03
1'
#930000
1$
13
0'
05
0/
0&
#940000
1#
0$
11
03
1'
15
04
0.
1/
0%
1&
#950000
1$
13
0'
#960000
0!
0"
0#
0$
02
00
01
03
1'
05
0/
0&
#970000
1$
13
0'
14
1.
1%
#980000
1#
0$
11
03
1'
04
0.
0%
#990000
1$
13
0'
