lab04_vs/simulation/qsim/lab04_vs.msim.vcd
$comment
	File created using the following command:
		vcd file lab04_vs.msim.vcd -direction
$end
$date
	Wed Oct  9 19:51:41 2024
$end
$version
	ModelSim Version 10.3d
$end
$timescale
	1ps
$end

$scope module Game_vlg_vec_tst $end
$var reg 1 ! clk $end
$var reg 1 " e $end
$var reg 1 # n $end
$var reg 1 $ r $end
$var reg 1 % s $end
$var reg 1 & w $end
$var wire 1 ' D $end
$var wire 1 ( NS $end
$var wire 1 ) S0 $end
$var wire 1 * S1 $end
$var wire 1 + S2 $end
$var wire 1 , S3 $end
$var wire 1 - S4 $end
$var wire 1 . S5 $end
$var wire 1 / S6 $end
$var wire 1 0 SW $end
$var wire 1 1 v $end
$var wire 1 2 WIN $end
$var wire 1 3 sampler $end

$scope module i1 $end
$var wire 1 4 gnd $end
$var wire 1 5 vcc $end
$var wire 1 6 unknown $end
$var tri1 1 7 devclrn $end
$var tri1 1 8 devpor $end
$var tri1 1 9 devoe $end
$var wire 1 : NS~output_o $end
$var wire 1 ; S0~output_o $end
$var wire 1 < S1~output_o $end
$var wire 1 = S2~output_o $end
$var wire 1 > S3~output_o $end
$var wire 1 ? S4~output_o $end
$var wire 1 @ S5~output_o $end
$var wire 1 A D~output_o $end
$var wire 1 B S6~output_o $end
$var wire 1 C WIN~output_o $end
$var wire 1 D SW~output_o $end
$var wire 1 E v~output_o $end
$var wire 1 F clk~input_o $end
$var wire 1 G clk~inputclkctrl_outclk $end
$var wire 1 H r~input_o $end
$var wire 1 I w~input_o $end
$var wire 1 J s~input_o $end
$var wire 1 K e~input_o $end
$var wire 1 L n~input_o $end
$var wire 1 M inst|inst13~combout $end
$var wire 1 N inst|inst~q $end
$var wire 1 O inst|inst16~0_combout $end
$var wire 1 P inst|inst16~1_combout $end
$var wire 1 Q inst|inst1~q $end
$var wire 1 R inst|inst20~0_combout $end
$var wire 1 S inst|inst20~1_combout $end
$var wire 1 T inst|inst27~q $end
$var wire 1 U inst|inst22~combout $end
$var wire 1 V inst|inst33~q $end
$var wire 1 W inst2|inst~0_combout $end
$var wire 1 X inst2|inst~q $end
$var wire 1 Y inst|inst23~combout $end
$var wire 1 Z inst|inst37~q $end
$var wire 1 [ inst2|inst12~0_combout $end
$var wire 1 \ inst2|inst1~q $end
$var wire 1 ] inst|inst24~combout $end
$var wire 1 ^ inst|inst41~q $end
$var wire 1 _ inst|inst25~combout $end
$var wire 1 ` inst|inst46~q $end
$upscope $end
$upscope $end
$enddefinitions $end
#0
$dumpvars
1!
0"
0#
1$
0%
0&
0'
0(
0)
0*
0+
0,
0-
0.
0/
00
01
02
x3
04
15
x6
17
18
19
0:
0;
0<
0=
0>
0?
0@
0A
0B
0C
0D
0E
1F
1G
1H
0I
0J
0K
0L
1M
0N
0O
0P
0Q
0R
0S
0T
0U
0V
1W
0X
0Y
0Z
0[
0\
0]
0^
0_
0`
$end
#10000
0!
0F
03
0G
#20000
1!
1F
13
1G
1X
1N
1;
1:
1)
1(
#30000
1"
0$
0!
1K
0H
0F
03
0G
1O
0M
1P
#40000
1!
1F
13
1G
1Q
0N
0;
1<
0O
0)
1*
0P
#50000
1&
0"
0!
1I
0K
0F
03
0G
1M
#60000
1!
1F
13
1G
0Q
1N
1;
0<
1)
0*
0M
#70000
0&
1"
0!
0I
1K
0F
03
0G
1O
1P
#80000
1!
1F
13
1G
1Q
0N
0;
1<
0O
0)
1*
0P
#90000
1%
0"
0!
1J
0K
0F
03
0G
1R
1S
#100000
1!
1F
13
1G
1T
0Q
0<
1=
0R
0*
1+
0S
#110000
1#
0%
0!
1L
0J
0F
03
0G
1O
1P
#120000
1!
1F
13
1G
0T
1Q
1<
0=
0O
1*
0+
0P
#130000
0#
1%
0!
0L
1J
0F
03
0G
1R
1S
#140000
1!
1F
13
1G
1T
0Q
0<
1=
0R
0*
1+
0S
#150000
1"
0%
0!
1K
0J
0F
03
0G
1Y
#160000
1!
1F
13
1G
1Z
0T
0=
1?
0+
1-
1]
0Y
#170000
0"
0!
0K
0F
03
0G
#180000
1!
1F
13
1G
1^
0Z
0?
1@
1A
0-
1.
1'
0]
#190000
0!
0F
03
0G
#200000
1!
1F
13
1G
0^
0@
0A
0.
0'
#210000
1$
0!
1H
0F
03
0G
1M
#220000
1!
1F
13
1G
1N
1;
1)
#230000
0!
0F
03
0G
#240000
1"
0$
1!
1K
0H
1F
13
1G
1O
0M
1P
#250000
0!
0F
03
0G
#260000
1&
0"
1!
1I
0K
1F
13
1G
0O
0P
1Q
0N
0;
1<
0)
1*
1M
#270000
0!
0F
03
0G
#280000
0&
1"
1!
0I
1K
1F
13
1G
0M
0Q
1N
1;
0<
1O
1)
0*
1P
#290000
0!
0F
03
0G
#300000
1%
0"
1!
1J
0K
1F
13
1G
0O
0P
1Q
0N
0;
1<
1R
0)
1*
1S
#310000
0!
0F
03
0G
#320000
1#
0%
1!
1L
0J
1F
13
1G
0R
0S
1T
0Q
0<
1=
1O
0*
1+
1P
#330000
0!
0F
03
0G
#340000
0#
1%
1!
0L
1J
1F
13
1G
0O
0P
0T
1Q
1<
0=
1R
1*
0+
1S
#350000
0!
0F
03
0G
#360000
1&
0%
1!
1I
0J
1F
13
1G
0R
1M
0S
1T
0Q
0<
1=
0*
1+
1U
0M
#370000
0!
0F
03
0G
#380000
1"
0&
1!
1K
0I
1F
13
1G
1Y
0U
1V
0T
0=
1>
1D
1R
0+
1,
10
1[
0W
0Y
1S
#390000
0!
0F
03
0G
#400000
1!
1F
13
1G
1\
0X
0V
1T
1=
0>
0D
0:
1E
0R
1+
0,
00
0(
11
1Y
0S
#410000
0!
0F
03
0G
#420000
0"
1!
0K
1F
13
1G
0Y
1Z
0T
0=
1?
0+
1-
1_
#430000
0!
0F
03
0G
#440000
1!
1F
13
1G
1`
0Z
0?
1B
1C
0-
1/
12
0_
#450000
0!
0F
03
0G
#460000
1!
1F
13
1G
0`
0B
0C
0/
02
#470000
0!
0F
03
0G
#480000
1!
1F
13
1G
#490000
0!
0F
03
0G
#500000
1!
1F
13
1G
#510000
0!
0F
03
0G
#520000
1!
1F
13
1G
#530000
0!
0F
03
0G
#540000
1!
1F
13
1G
#550000
0!
0F
03
0G
#560000
1!
1F
13
1G
#570000
1$
0!
1H
0F
03
0G
0[
1W
1M
#580000
1!
1F
13
1G
0\
1X
1N
1;
1:
0E
1)
1(
01
#590000
0!
0F
03
0G
#600000
0$
1!
0H
1F
13
1G
0M
#610000
0!
0F
03
0G
#620000
1!
1F
13
1G
0N
0;
0)
#630000
0!
0F
03
0G
#640000
1!
1F
13
1G
#650000
0!
0F
03
0G
#660000
1!
1F
13
1G
#670000
0!
0F
03
0G
#680000
1!
1F
13
1G
#690000
0!
0F
03
0G
#700000
1!
1F
13
1G
#710000
0!
0F
03
0G
#720000
1!
1F
13
1G
#730000
0!
0F
03
0G
#740000
1!
1F
13
1G
#750000
0!
0F
03
0G
#760000
1!
1F
13
1G
#770000
0!
0F
03
0G
#780000
1!
1F
13
1G
#790000
0!
0F
03
0G
#800000
1!
1F
13
1G
#810000
0!
0F
03
0G
#820000
1!
1F
13
1G
#830000
0!
0F
03
0G
#840000
1!
1F
13
1G
#850000
0!
0F
03
0G
#860000
1!
1F
13
1G
#870000
0!
0F
03
0G
#880000
1!
1F
13
1G
#890000
0!
0F
03
0G
#900000
1!
1F
13
1G
#910000
0!
0F
03
0G
#920000
1!
1F
13
1G
#930000
0!
0F
03
0G
#940000
1!
1F
13
1G
#950000
0!
0F
03
0G
#960000
1!
1F
13
1G
#970000
0!
0F
03
0G
#980000
1!
1F
13
1G
#990000
0!
0F
03
0G
